<?xml version="1.0" encoding="utf-8"?>
<!-- Generator: Adobe Illustrator 16.0.0, SVG Export Plug-In . SVG Version: 6.00 Build 0)  -->
<!DOCTYPE svg PUBLIC "-//W3C//DTD SVG 1.1//EN" "http://www.w3.org/Graphics/SVG/1.1/DTD/svg11.dtd">
<svg version="1.1" id="Layer_1" xmlns="http://www.w3.org/2000/svg" xmlns:xlink="http://www.w3.org/1999/xlink" x="0px" y="0px"
	 width="114px" height="122px" viewBox="0 0 114 122" style="enable-background:new 0 0 114 122;" xml:space="preserve">
<style type="text/css">
<![CDATA[
	.st0{fill:#C1272D;}
	.st1{fill:#39B54A;}
	.st2{fill-rule:evenodd;clip-rule:evenodd;fill:#333333;}
]]>
</style>
<path class="st2" d="M4,103.2h6.9V38.7v-2l1.9-0.5l27-7.2l3.2-0.9l13.6,9v66.1h2.3V21.9v-2l1.9-0.5l27-7.2l3.2-0.9l13.5,8.9v88.1H91
	h-5.1V18L64,23.9v79.7h4.3v5.1H40.5h-2.6v-2.6V34.8L16,40.6v65.1v2.6h-2.6H4V103.2L4,103.2z M67.8,67.4c0,3.3,0,6.6,0,9.9
	c0.9,0,1.8,0,2.7,0c0.9,0,1.9,0,2.8,0c0-3.4,0-6.8,0-10.1c-0.9,0-1.9,0.1-2.8,0.1C69.6,67.3,68.7,67.4,67.8,67.4L67.8,67.4z
	 M76.5,25.3c0,3.4,0,6.9,0,10.3c1-0.2,2-0.4,2.9-0.6c1-0.2,2-0.4,3-0.6c0-3.5,0-7.1,0-10.6c-1,0.2-2,0.5-3,0.7
	C78.4,24.8,77.4,25,76.5,25.3L76.5,25.3z M67.8,27.3c0,3.3,0,6.6,0,9.9c0.9-0.2,1.8-0.3,2.7-0.5c0.9-0.2,1.9-0.3,2.8-0.5
	c0-3.4,0-6.8,0-10.2c-0.9,0.2-1.9,0.4-2.8,0.7C69.6,26.9,68.7,27.1,67.8,27.3L67.8,27.3z M76.5,39.2c0,3.4,0,6.9,0,10.3
	c1-0.1,2-0.2,2.9-0.4c1-0.1,2-0.3,3-0.4c0-3.5,0-7,0-10.6c-1,0.2-2,0.3-3,0.5C78.4,38.9,77.4,39,76.5,39.2L76.5,39.2z M67.8,40.7
	c0,3.3,0,6.6,0,9.9c0.9-0.1,1.8-0.2,2.7-0.3c0.9-0.1,1.9-0.2,2.8-0.3c0-3.4,0-6.8,0-10.2c-0.9,0.2-1.9,0.3-2.8,0.5
	C69.6,40.4,68.7,40.5,67.8,40.7L67.8,40.7z M76.5,53.1c0,3.4,0,6.9,0,10.3c1-0.1,2-0.1,2.9-0.2c1-0.1,2-0.1,3-0.2c0-3.5,0-7,0-10.6
	c-1,0.1-2,0.2-3,0.3C78.4,52.9,77.4,53,76.5,53.1L76.5,53.1z M67.8,54.1c0,3.3,0,6.6,0,9.9c0.9-0.1,1.8-0.1,2.7-0.2
	c0.9-0.1,1.9-0.1,2.8-0.2c0-3.4,0-6.8,0-10.2c-0.9,0.1-1.9,0.2-2.8,0.3C69.6,53.9,68.7,54,67.8,54.1L67.8,54.1z M76.5,67
	c0,3.4,0,6.9,0,10.3c1,0,2,0,2.9,0c1,0,2,0,3,0c0-3.5,0-7,0-10.6c-1,0-2,0.1-3,0.1C78.4,66.9,77.4,67,76.5,67L76.5,67z M19.6,85.2
	c0,3.3,0,6.6,0,9.9c0.9,0,1.8,0,2.7,0c0.9,0,1.8,0,2.8,0c0-3.4,0-6.8,0-10.1c-0.9,0-1.9,0.1-2.8,0.1C21.4,85.1,20.5,85.2,19.6,85.2
	L19.6,85.2z M28.2,43c0,3.4,0,6.9,0,10.3c1-0.2,2-0.4,2.9-0.6c1-0.2,2-0.4,3-0.6c0-3.5,0-7.1,0-10.6c-1,0.2-2,0.5-3,0.7
	C30.2,42.6,29.2,42.8,28.2,43L28.2,43z M19.6,45.1c0,3.3,0,6.6,0,9.9c0.9-0.2,1.8-0.3,2.7-0.5c0.9-0.2,1.8-0.3,2.8-0.5
	c0-3.4,0-6.8,0-10.2c-0.9,0.2-1.9,0.4-2.8,0.7C21.4,44.6,20.5,44.9,19.6,45.1L19.6,45.1z M28.2,57c0,3.4,0,6.9,0,10.3
	c1-0.1,2-0.2,2.9-0.4c1-0.1,2-0.3,3-0.4c0-3.5,0-7,0-10.6c-1,0.2-2,0.3-3,0.5C30.2,56.6,29.2,56.8,28.2,57L28.2,57z M19.6,58.5
	c0,3.3,0,6.6,0,9.9c0.9-0.1,1.8-0.2,2.7-0.3c0.9-0.1,1.8-0.2,2.8-0.3c0-3.4,0-6.8,0-10.2c-0.9,0.2-1.9,0.3-2.8,0.5
	C21.4,58.1,20.5,58.3,19.6,58.5L19.6,58.5z M28.2,70.9c0,3.4,0,6.9,0,10.3c1-0.1,2-0.1,2.9-0.2c1-0.1,2-0.1,3-0.2c0-3.5,0-7,0-10.6
	c-1,0.1-2,0.2-3,0.3C30.2,70.7,29.2,70.8,28.2,70.9L28.2,70.9z M19.6,71.8c0,3.3,0,6.6,0,9.9c0.9-0.1,1.8-0.1,2.7-0.2
	c0.9-0.1,1.8-0.1,2.8-0.2c0-3.4,0-6.8,0-10.2c-0.9,0.1-1.9,0.2-2.8,0.3C21.4,71.6,20.5,71.7,19.6,71.8L19.6,71.8z M28.2,84.8
	c0,3.4,0,6.9,0,10.3c1,0,2,0,2.9,0c1,0,2,0,3,0c0-3.5,0-7,0-10.6c-1,0-2,0.1-3,0.1C30.2,84.7,29.2,84.8,28.2,84.8z"/>
<path class="st1" d="M78.5,13.2L73.3,8c-0.7-0.7-1.6-1.1-2.6-1.1c-1,0-1.9,0.4-2.6,1.1L42.8,33.3L31.4,21.9
	c-0.7-0.7-1.6-1.1-2.6-1.1c-1,0-1.9,0.4-2.6,1.1l-5.2,5.2c-0.7,0.7-1.1,1.6-1.1,2.6c0,1,0.4,1.9,1.1,2.6l14,14l5.2,5.2
	c0.7,0.7,1.6,1.1,2.6,1.1c1,0,1.9-0.4,2.6-1.1l5.2-5.2l27.9-27.9c0.7-0.7,1.1-1.6,1.1-2.6C79.6,14.8,79.2,13.9,78.5,13.2z"/>
</svg>
